client,destination,produit,quantite
Rapees,Le Mans,carottes,2000
Verger,Lyon,Peches,1000
Saltus,Avignon,Abricots,2000
Sarthoise,Le Mans,pommes,1500
FraisMontois,Mont-de-Marsan,salade,400
MaraichageNantais,Nantes,chou-fleur,200
