nom,prenom,tarif,date,depart,arrivee,distance
Naymar,Jean,Senior,14/03/2019,Compiègne,Paris,84
Bricot,Judas,enfant,25/04/2019,Paris,Poitiers,335
Melmou,Cara,adulte,04/05/2019,Les Aubrais,Martigues,750
Versaire,Annie,adulte,04/05/2019,Paris,Rennes,374